<body>
<b>{{user-name}}</b>,
      <p>
         </br></br>
          请注意，该帐户使用用户名注册 <b>{{user-name}} 已被锁</b>.<br>
      </p>
      <p>
         </br> 
         If you have any questions, you may contact our SEC3URE Verification Services Team at <a href="mailto:psv@intellicentrics.com">PSV@IntelliCentrics.com</a> or call 817-732-3873, select option 5. </br>
      </p>
      </br></br>
      </br> <strong>Thank you,</strong></br> 
      <strong>IntelliCentrics Customer Service</strong>
      </br>
      </a>
      <div style="margin-top: 20px;">
         <a href="www.intellicentrics.com"><img
            src="https://s3.amazonaws.com/intellicentrics-pubdocs/misc+logos/IntelliCentrics-Logo.png"
            alt="Intellicentrics" height="50" width="200"></img></a>
      </div>
   </body>

                            
                            